[gd_scene format=2]

[node name="Pause" type="Control"]
anchor_left = 0.5
anchor_top = 0.5
anchor_right = 0.5
anchor_bottom = 0.5
margin_left = -512.0
margin_top = -300.0
margin_right = 512.0
margin_bottom = 300.0

[node name="Overlay" type="ColorRect" parent="."]
anchor_right = 1.0
anchor_bottom = 1.0
color = Color( 0.0980392, 0.0980392, 0.0980392, 0.164706 )

[node name="HBoxContainer" type="HBoxContainer" parent="."]
anchor_left = 0.5
anchor_top = 0.5
anchor_right = 0.5
anchor_bottom = 0.5
margin_left = -32.0
margin_top = -46.0
margin_right = 32.0
margin_bottom = 46.0

[node name="VBoxContainer" type="VBoxContainer" parent="HBoxContainer"]
margin_right = 64.0
margin_bottom = 110.0

[node name="Label" type="Label" parent="HBoxContainer/VBoxContainer"]
margin_right = 64.0
margin_bottom = 14.0
text = "Pause"
align = 1

[node name="ResumeButton" type="Button" parent="HBoxContainer/VBoxContainer"]
margin_top = 18.0
margin_right = 64.0
margin_bottom = 38.0
text = "Resume"

[node name="RestartButton" type="Button" parent="HBoxContainer/VBoxContainer"]
margin_top = 42.0
margin_right = 64.0
margin_bottom = 62.0
text = "Restart"

[node name="OptionsButton" type="Button" parent="HBoxContainer/VBoxContainer"]
margin_top = 66.0
margin_right = 64.0
margin_bottom = 86.0
text = "Options"

[node name="QuitButton" type="Button" parent="HBoxContainer/VBoxContainer"]
margin_top = 90.0
margin_right = 64.0
margin_bottom = 110.0
text = "Quit"
